<svg width="43" height="24" viewBox="0 0 43 24" fill="none" xmlns="http://www.w3.org/2000/svg">
<path fill-rule="evenodd" clip-rule="evenodd" d="M12.8767 0.0221445L2.21491 1.90361C2.09736 2.30152 1.90182 3.04315 1.65514 4.07805L14.2545 0.489119C13.9039 0.110265 13.3854 -0.0654628 12.8767 0.0221445ZM16.4037 5.58704C14.8972 6.68085 12.0956 8.50388 9.82142 8.78252L15.7922 4.0586L16.4037 5.58704ZM17.0136 7.01851C17.0675 7.08596 17.1324 7.14372 17.2057 7.18929C17.2111 7.1927 17.6136 7.44023 18.2747 7.83453L17.0669 9.04229L18.1403 10.1157L19.6258 8.63025C20.148 8.93385 20.6579 9.22616 21.1556 9.50718L20.1033 10.5594L21.1767 11.6329L22.5334 10.2761C23.1671 10.6245 23.7742 10.9509 24.3478 11.2515C24.2724 12.2033 24.1179 13.1471 23.8859 14.0733C22.1093 13.485 20.377 12.7707 18.7022 11.9357C17.2317 11.2005 15.7257 10.1002 14.3026 8.72892C15.2388 8.21214 16.144 7.64102 17.0136 7.01851ZM30.5619 13.9844L25.5562 19.4451L25.49 19.4453C25.3916 19.4456 25.2936 19.4459 25.1937 19.4457C24.348 19.4457 23.3922 19.432 22.3402 19.4048C23.5396 18.003 24.7341 16.393 25.1547 15.132C25.4917 14.1226 25.6861 12.9847 25.7987 11.9938C26.4636 12.3247 27.0821 12.6188 27.654 12.8761L26.934 13.5962L28.0074 14.6696L29.1649 13.5121C29.6884 13.7145 30.152 13.8714 30.5619 13.9844ZM37.1574 15.1178C35.6026 14.8933 33.8535 14.6236 32.2935 14.3414L30.7755 15.9972C31.937 16.0097 33.2636 15.9954 34.2273 15.9013C35.0647 15.8195 36.1374 15.4948 37.1574 15.1178ZM41.3284 16.9797C41.0291 16.3777 40.5301 15.8981 39.9166 15.623C38.2315 16.3799 36.0001 17.2532 34.3754 17.4118C33.5531 17.4921 32.5115 17.5195 31.4746 17.5195C30.7589 17.5195 30.0463 17.5064 29.4086 17.4887L27.6334 19.4252C34.3277 19.3123 38.8309 18.7123 41.6193 17.5617L41.3284 16.9797ZM25.1936 20.964C25.4298 20.964 25.6634 20.9634 25.8943 20.9621C33.8544 20.9273 38.9556 20.3084 42.1971 18.9675L42.4811 19.8196C39.3893 21.3487 33.5573 24 25.1936 24C18.127 24 6.3396 23.536 1.59974 23.3365C0.786381 23.3038 0.144494 22.6338 0.146632 21.8198V19.5161C1.78294 19.6588 5.65792 19.9868 10.0859 20.2924C14.1588 20.5721 17.7181 20.7673 20.6652 20.8724C22.3904 20.9333 23.9141 20.964 25.1936 20.964ZM7.15913 14.7022L0.195303 11.4884C0.174905 11.6463 0.157353 11.7958 0.142457 11.9353C-0.0976714 14.1923 0.0218712 16.8098 0.0975814 17.9879C1.46587 18.1078 4.88061 18.3996 8.9313 18.6893L7.15913 14.7022ZM8.05475 13.4438L0.435621 9.92766C0.525626 9.40383 0.630684 8.83641 0.750796 8.22542C2.79896 9.005 5.42415 9.87719 7.63758 10.2046L7.65125 10.2064C8.18182 10.289 8.71769 10.333 9.25463 10.338C10.3985 10.338 11.6479 9.97226 12.861 9.44067C14.5202 11.1138 16.2546 12.4091 18.0231 13.2938C19.738 14.1488 21.511 14.8822 23.3289 15.4885C22.7655 16.4982 21.7357 17.8434 20.3695 19.3424C17.6208 19.2395 14.3538 19.0601 10.6456 18.8088L8.43026 13.8248C8.35538 13.6565 8.22194 13.5211 8.05475 13.4438ZM7.54053 8.6516C5.35755 8.28007 2.74791 7.36699 1.06123 6.71833C1.13077 6.39262 1.19974 6.07451 1.26796 5.76692L14.9194 1.87809L15.2041 2.58832L7.54053 8.6516Z" fill="#1C1813"/>
</svg>
